%YAML 1.1
%TAG !u! tag:unity3d.com,2011:
--- !u!687078895 &4343727234628468602
SpriteAtlas:
  m_ObjectHideFlags: 0
  m_CorrespondingSourceObject: {fileID: 0}
  m_PrefabInstance: {fileID: 0}
  m_PrefabAsset: {fileID: 0}
  m_Name: UIAtlas
  m_EditorData:
    serializedVersion: 2
    textureSettings:
      serializedVersion: 2
      anisoLevel: 1
      compressionQuality: 50
      maxTextureSize: 2048
      textureCompression: 0
      filterMode: 1
      generateMipMaps: 0
      readable: 1
      crunchedCompression: 0
      sRGB: 1
    platformSettings:
    - serializedVersion: 3
      m_BuildTarget: DefaultTexturePlatform
      m_MaxTextureSize: 2048
      m_ResizeAlgorithm: 0
      m_TextureFormat: -1
      m_TextureCompression: 1
      m_CompressionQuality: 50
      m_CrunchedCompression: 1
      m_AllowsAlphaSplitting: 0
      m_Overridden: 0
      m_AndroidETC2FallbackOverride: 0
      m_ForceMaximumCompressionQuality_BC6H_BC7: 0
    packingSettings:
      serializedVersion: 2
      padding: 8
      blockOffset: 1
      allowAlphaSplitting: 0
      enableRotation: 0
      enableTightPacking: 0
    variantMultiplier: 1
    packables:
    - {fileID: 102900000, guid: 60f1c633fa9fc2346b8ccf21f770b61a, type: 3}
    totalSpriteSurfaceArea: 858666
    bindAsDefault: 1
  m_MasterAtlas: {fileID: 0}
  m_PackedSprites:
  - {fileID: 21300000, guid: 22f86070c74ca4948bd84c17a6315a45, type: 3}
  - {fileID: 21300000, guid: 630cb90100f6ddf4eb2bd0cdea6d7eb4, type: 3}
  - {fileID: 21300000, guid: 7dec5941c2dffe644869f26a059225d1, type: 3}
  - {fileID: 21300000, guid: 86a8973385bbe424b994b4729bba9615, type: 3}
  - {fileID: 21300000, guid: 4c5eef96bb6f6374384909c066403aab, type: 3}
  - {fileID: 21300000, guid: b03738a6946f9fa488e342a58b34506a, type: 3}
  - {fileID: 21300000, guid: c33ab3f6eb407884bbc2d9359ab8e51b, type: 3}
  - {fileID: 21300000, guid: bb4a4837ac41b3548ac018b921ac6c8b, type: 3}
  - {fileID: 21300000, guid: 0ebbdfb7a32c4e1459ef4f70f1f4b37e, type: 3}
  - {fileID: 21300000, guid: 9d3712e7558818040af0a8f4752ccaed, type: 3}
  - {fileID: 21300000, guid: a9aaf7e80b4071d4582e2f0ddd0b9b93, type: 3}
  - {fileID: 21300000, guid: 27d714b90a48e3f40a602457fafd37e3, type: 3}
  - {fileID: 21300000, guid: 2d05ba0aa73a96940af605ddb870de52, type: 3}
  - {fileID: 21300000, guid: 3dbf56caf8abc4b47b7a8fdda29661eb, type: 3}
  - {fileID: 21300000, guid: 496a9c8c71444d844970189df7c12a53, type: 3}
  - {fileID: 21300000, guid: 9d13f3ccf5ec60d43bb690c86f0795cc, type: 3}
  - {fileID: 21300000, guid: 5172ae1d174ac3f42927b0a7d81505c0, type: 3}
  - {fileID: 21300000, guid: d1ad8c7dfdf229c438754db558e85c8e, type: 3}
  - {fileID: 21300000, guid: b59e880e49069694b842cd30d47a4ce2, type: 3}
  - {fileID: 21300000, guid: 1504443fb5b099b4aa32d0b446c637e2, type: 3}
  - {fileID: 21300000, guid: d64d259f8ee7f1341817f02c19a89a5f, type: 3}
  - {fileID: 21300000, guid: 60cca1af9cac21f4eb112fa6ca9425eb, type: 3}
  - {fileID: 21300000, guid: 9b5385ffb3bf21d4999e87ce7b2174b8, type: 3}
  m_PackedSpriteNamesToIndex:
  - coins
  - headerEl
  - line-progress
  - friends
  - coin
  - progress
  - button menu
  - chat
  - button ask
  - rank
  - Ad in top
  - Block
  - Play button
  - bg
  - Quests
  - done
  - actual xp
  - for-rework
  - chip-shdow
  - chip
  - notification
  - Store
  - user
  m_Tag: UIAtlas
  m_IsVariant: 0
